/home/marcin/Programowanie/java/servtest/src/main/java/com/servlets/HelloServlet.java
/home/marcin/Programowanie/java/servtest/src/main/java/com/servlets/LoginDao.java
/home/marcin/Programowanie/java/servtest/src/main/java/com/servlets/LoginServlet.java
/home/marcin/Programowanie/java/servtest/src/main/java/com/servlets/RegisterServlet.java
/home/marcin/Programowanie/java/servtest/src/main/java/com/servlets/WelcomeServlet.java
/home/marcin/Programowanie/java/servtest/src/main/java/model/Rata.java
